^D:\学习\大二下学期\计算机图形学\HOMEWORK\PIANO\PIANO\PIANO\STDAFX.CPP
/c /ZI /nologo /W3 /WX- /Od /Oy- /D WIN32 /D _DEBUG /D _WINDOWS /D _UNICODE /D UNICODE /U_CRT_SECURE_NO_WARNINGS /Gm /EHsc /RTC1 /MDd /GS /fp:precise /Zc:wchar_t /Zc:forScope /Yc"StdAfx.h" /Fp"Debug\piano.pch" /Fo"Debug\\" /Fd"Debug\vc100.pdb" /Gd /TP /analyze- /errorReport:prompt D:\学习\大二下学期\计算机图形学\HOMEWORK\PIANO\PIANO\PIANO\STDAFX.CPP
^D:\学习\大二下学期\计算机图形学\HOMEWORK\PIANO\PIANO\PIANO\3DS.CPP
/c /ZI /nologo /W3 /WX- /Od /Oy- /D WIN32 /D _DEBUG /D _WINDOWS /D _UNICODE /D UNICODE /U_CRT_SECURE_NO_WARNINGS /Gm /EHsc /RTC1 /MDd /GS /fp:precise /Zc:wchar_t /Zc:forScope /Yu"StdAfx.h" /Fp"Debug\piano.pch" /Fo"Debug\\" /Fd"Debug\vc100.pdb" /Gd /TP /analyze- /errorReport:prompt D:\学习\大二下学期\计算机图形学\HOMEWORK\PIANO\PIANO\PIANO\3DS.CPP
^D:\学习\大二下学期\计算机图形学\HOMEWORK\PIANO\PIANO\PIANO\PIANO.CPP
/c /ZI /nologo /W3 /WX- /Od /Oy- /D WIN32 /D _DEBUG /D _WINDOWS /D _UNICODE /D UNICODE /U_CRT_SECURE_NO_WARNINGS /Gm /EHsc /RTC1 /MDd /GS /fp:precise /Zc:wchar_t /Zc:forScope /Yu"StdAfx.h" /Fp"Debug\piano.pch" /Fo"Debug\\" /Fd"Debug\vc100.pdb" /Gd /TP /analyze- /errorReport:prompt D:\学习\大二下学期\计算机图形学\HOMEWORK\PIANO\PIANO\PIANO\PIANO.CPP
^D:\学习\大二下学期\计算机图形学\HOMEWORK\PIANO\PIANO\PIANO\TEXTURE.CPP
/c /ZI /nologo /W3 /WX- /Od /Oy- /D WIN32 /D _DEBUG /D _WINDOWS /D _UNICODE /D UNICODE /U_CRT_SECURE_NO_WARNINGS /Gm /EHsc /RTC1 /MDd /GS /fp:precise /Zc:wchar_t /Zc:forScope /Yu"StdAfx.h" /Fp"Debug\piano.pch" /Fo"Debug\\" /Fd"Debug\vc100.pdb" /Gd /TP /analyze- /errorReport:prompt D:\学习\大二下学期\计算机图形学\HOMEWORK\PIANO\PIANO\PIANO\TEXTURE.CPP
^D:\学习\大二下学期\计算机图形学\HOMEWORK\PIANO\PIANO\PIANO\MATRIXMATH.CPP
/c /ZI /nologo /W3 /WX- /Od /Oy- /D WIN32 /D _DEBUG /D _WINDOWS /D _UNICODE /D UNICODE /U_CRT_SECURE_NO_WARNINGS /Gm /EHsc /RTC1 /MDd /GS /fp:precise /Zc:wchar_t /Zc:forScope /Yu"StdAfx.h" /Fp"Debug\piano.pch" /Fo"Debug\\" /Fd"Debug\vc100.pdb" /Gd /TP /analyze- /errorReport:prompt D:\学习\大二下学期\计算机图形学\HOMEWORK\PIANO\PIANO\PIANO\MATRIXMATH.CPP
^D:\学习\大二下学期\计算机图形学\HOMEWORK\PIANO\PIANO\PIANO\VECTORMATH.CPP
/c /ZI /nologo /W3 /WX- /Od /Oy- /D WIN32 /D _DEBUG /D _WINDOWS /D _UNICODE /D UNICODE /U_CRT_SECURE_NO_WARNINGS /Gm /EHsc /RTC1 /MDd /GS /fp:precise /Zc:wchar_t /Zc:forScope /Yu"StdAfx.h" /Fp"Debug\piano.pch" /Fo"Debug\\" /Fd"Debug\vc100.pdb" /Gd /TP /analyze- /errorReport:prompt D:\学习\大二下学期\计算机图形学\HOMEWORK\PIANO\PIANO\PIANO\VECTORMATH.CPP
